{
    "$schema": "https://raw.githubusercontent.com/martinring/tmlanguage/master/tmlanguage.json",
    "name": "Inform 7 extension",
    "scopeName": "source.inform7.extension",
    "patterns": [
        {
            "include": "#title"
        },
        {
            "include": "#body"
        }
    ],
    "repository": {
        "title": {
            "begin": "^.*$",
            "beginCaptures": {
                "0": { "name": "markup.heading.inform7.extension" }
            },
            "end": "$END",
            "patterns": [
                {
                    "include": "#rubric"
                },
                {
                    "include": "#body"
                }
            ]
        },
        "rubric": {
            "begin": "^\"[^\"]*\"$",
            "beginCaptures": {
                "0": { "name": "keyword.other.rubric.inform7.extension" }
            },
            "end": "$END",
            "patterns": [
                {
                    "include": "#credit"
                },
                {
                    "include": "#body"
                }
            ]
        },
        "credit": {
            "begin": "^\"[^\"]*\"$",
            "beginCaptures": {
                "0": { "name": "keyword.other.credit.inform7.extension" }
            },
            "end": "$END",
            "patterns": [
                {
                    "include": "#body"
                }
            ]
        },
        "body": {
            "begin": "(?=.)",
            "end": "$END",
            "patterns": [
                {
                    "include": "#end"
                },
                {
                    "include": "#documentation"
                },
                {
                    "include": "source.inform7#source"
                }
            ]
        },
        "end": {
            "name": "markup.heading.inform7.extension",
            "match": "^[^\"\\[\\]]+ ends? here.$"
        },
        "documentation": {
            "begin": "(?i)^\\s*(----\\s+documentation\\s+----).*$",
            "beginCaptures": {
                "1": { "name": "markup.heading.inform7.extension" }
            },
            "end": "$END",
            "patterns": [
                {
                    "include": "source.inform7#comment"
                },
                {
                    "include": "source.inform7#text"
                },
                {
                    "include": "#documentationHeading"
                },
                {
                    "include": "#documentationSource"
                }
            ]
        },
        "documentationHeading": {
            "patterns": [
                {
                    "name": "markup.heading.inform7.extension",
                    "match": "(?i)^\\s*(chapter|section): .*$"
                },
                {
                    "name": "markup.heading.inform7.extension",
                    "match": "(?i)^Example: +\\*{1,4} +[^-]+ +- +.*$"
                }
            ]
        },
        "documentationSource": {
            "patterns": [
                {
                    "begin": "(?=^\\t+)",
                    "end": "$",
                    "patterns": [
                        {
                            "name": "keyword.control.inform7.extension",
                            "match": "\\*:"
                        },
                        {
                            "include": "source.inform7#source"
                        }
                    ]
                }
            ]
        }
    }
}
